5 2 3 8 4 6 1 7 13 9 B 11 17 12 14 10 21 16 18 19 15 20 22 23 24  :  - 22 863532 1.85
1 2 7 4 9 5 6 8 3 14 10 11 12 13 19 15 16 17 B 18 20 21 22 23 24  :  - 15 23301 0.03
5 1 2 3 4 6 7 12 8 9 10 11 B 13 14 15 16 17 18 19 20 21 22 23 24  :  - 6 257 0
5 1 2 3 4 10 6 7 8 9 11 12 B 17 14 15 16 22 13 19 20 21 23 18 24  :  - 16 73435 0.12
5 1 2 3 4 11 10 7 8 9 6 16 B 12 14 15 17 18 13 19 20 21 22 23 24  :  - 18 168328 0.28
1 2 7 3 4 5 B 6 8 9 10 11 12 13 14 15 16 17 18 19 20 21 22 23 24  :  - 5 90 0
6 2 7 3 4 1 B 5 8 9 10 11 12 13 14 15 16 17 18 19 20 21 22 23 24  :  - 11 2405 0.01
5 7 1 3 4 10 2 12 8 9 11 6 B 13 14 15 16 17 18 19 20 21 22 23 24  :  - 16 67611 0.11
5 2 B 3 4 10 1 7 8 9 11 6 12 13 14 15 16 17 18 19 20 21 22 23 24  :  - 10 1089 0
5 1 B 2 4 6 11 8 3 9 10 12 7 13 14 15 16 17 18 19 20 21 22 23 24  :  - 12 4049 0
5 1 3 8 B 6 7 2 13 4 10 11 12 18 9 15 16 17 19 14 20 21 22 23 24  :  - 20 243762 0.47
5 1 2 3 4 10 6 7 8 9 15 11 12 13 14 21 20 17 18 19 16 22 B 23 24  :  - 16 40559 0.06
1 2 8 4 B 5 6 3 7 9 10 11 12 13 14 15 16 17 18 19 20 21 22 23 24  :  - 10 843 0
5 1 2 3 4 10 6 7 8 9 11 12 B 17 14 15 16 18 13 24 20 21 22 19 23  :  - 18 139479 0.24
5 1 B 2 3 6 11 7 9 4 10 12 13 8 14 15 16 17 18 19 20 21 22 23 24  :  - 14 11329 0.02
5 2 3 8 4 6 1 7 13 9 10 11 12 14 19 15 B 16 18 24 20 21 17 22 23  :  - 21 856079 1.82
5 1 2 3 4 6 11 7 8 9 10 12 13 18 14 15 16 17 23 19 20 21 22 24 B  :  - 12 3099 0
5 1 2 3 4 10 6 7 8 9 B 11 12 13 14 15 16 17 18 19 20 21 22 23 24  :  - 4 31 0
1 2 3 4 9 5 6 7 8 14 10 11 12 13 19 15 16 17 23 18 20 21 B 22 24  :  - 14 14742 0.03
1 6 2 3 4 5 11 7 8 9 10 12 17 13 14 20 15 18 B 19 21 22 16 23 24  :  - 17 70276 0.12
1 6 2 3 4 5 7 12 8 9 10 11 B 13 14 15 16 17 18 19 20 21 22 23 24  :  - 6 200 0
5 1 2 3 4 6 11 7 8 9 10 16 12 13 14 20 15 17 18 19 B 21 22 23 24  :  - 10 776 0
5 1 2 3 4 11 16 7 8 9 10 6 12 13 14 15 17 18 B 19 20 21 22 23 24  :  - 21 804176 1.74
1 6 2 3 4 5 B 12 8 9 10 7 17 13 14 15 11 18 23 19 20 16 21 22 24  :  - 19 328966 0.59
5 1 2 3 4 10 6 7 8 9 15 11 12 13 B 16 17 18 23 14 20 21 22 24 19  :  - 16 42468 0.06
6 5 2 3 4 1 B 7 8 9 10 11 12 13 14 15 16 17 18 19 20 21 22 23 24  :  - 9 827 0
6 5 2 3 4 10 1 12 8 9 B 7 11 13 14 15 16 17 18 19 20 21 22 23 24  :  - 16 52809 0.09
5 1 2 3 4 10 6 7 B 14 11 12 13 9 19 15 16 17 8 18 20 21 22 23 24  :  - 19 190716 0.32
1 6 B 2 4 5 7 8 3 9 10 11 12 13 14 15 16 22 18 19 20 17 21 23 24  :  - 22 921183 1.91
B 2 7 3 4 6 1 5 8 9 10 11 12 13 14 15 16 17 18 19 20 21 22 23 24  :  - 14 8617 0.01
5 1 2 3 4 10 6 7 8 9 11 16 12 13 14 15 B 17 18 19 20 21 22 23 24  :  - 7 236 0
5 1 2 3 4 10 6 7 8 9 15 11 B 12 14 20 16 17 13 19 21 22 23 18 24  :  - 16 45999 0.07
1 6 2 3 4 10 5 7 8 9 15 11 12 13 14 20 16 17 18 19 21 22 B 23 24  :  - 12 4098 0.01
5 6 1 2 4 10 B 7 3 9 11 12 13 8 14 15 16 17 18 19 20 21 22 23 24  :  - 15 26016 0.03
5 1 2 3 4 10 6 7 8 9 B 16 12 13 14 11 15 17 18 19 20 21 22 23 24  :  - 10 1457 0.01
5 1 2 3 4 10 6 7 8 9 11 16 B 13 14 15 17 12 18 19 20 21 22 23 24  :  - 10 2307 0
5 7 1 3 4 6 B 2 8 9 10 11 12 13 14 15 16 17 18 19 20 21 22 23 24  :  - 9 785 0
5 1 2 3 4 6 B 7 8 9 10 11 12 13 14 15 16 17 18 19 20 21 22 23 24  :  - 3 30 0
1 2 B 3 4 5 10 7 8 9 11 6 12 13 14 15 16 17 18 19 20 21 22 23 24  :  - 12 2948 0
1 2 7 3 4 5 6 12 8 9 10 11 B 13 14 15 16 17 18 19 20 21 22 23 24  :  - 6 177 0
1 2 7 13 B 5 6 8 4 3 10 11 12 18 9 15 16 17 19 14 20 21 22 23 24  :  - 22 575407 1.09
1 2 3 4 9 5 6 7 8 14 10 11 12 13 B 15 16 17 18 19 20 21 22 23 24  :  - 8 541 0
1 2 3 8 4 5 6 7 B 14 10 11 12 9 13 15 16 17 18 19 20 21 22 23 24  :  - 11 3022 0
1 2 3 4 9 5 6 12 7 8 10 11 17 13 14 15 16 18 B 19 20 21 22 23 24  :  - 13 9704 0.02
1 2 3 8 4 5 6 7 B 9 10 11 12 13 14 15 16 17 18 19 20 21 22 23 24  :  - 5 101 0
1 2 11 3 4 5 6 8 9 14 10 12 7 18 13 15 16 17 B 19 20 21 22 23 24  :  - 21 636933 1.24
5 1 3 4 9 6 11 2 13 8 10 16 7 14 B 15 17 12 18 19 20 21 22 23 24  :  - 22 1379841 2.67
1 6 2 3 9 5 7 4 8 14 10 11 12 13 B 15 16 17 18 19 20 21 22 23 24  :  - 18 147843 0.26
5 1 2 3 4 6 11 8 B 9 10 12 7 13 14 15 16 17 18 19 20 21 22 23 24  :  - 9 678 0
5 1 2 3 4 10 6 7 8 9 11 16 12 13 14 15 17 18 B 19 20 21 22 23 24  :  - 9 1125 0
1 2 3 9 8 5 6 7 4 14 10 11 B 12 13 15 16 17 18 19 20 21 22 23 24  :  - 16 55583 0.1
5 1 2 3 4 10 12 6 8 9 11 16 7 13 14 15 B 17 18 19 20 21 22 23 24  :  - 13 9532 0.01
1 6 2 3 4 5 7 8 B 9 10 11 12 13 14 15 16 17 18 19 20 21 22 23 24  :  - 5 73 0
1 8 2 4 9 5 6 7 B 3 10 11 12 13 14 15 16 17 18 19 20 21 22 23 24  :  - 19 238216 0.45
5 1 B 2 4 6 12 8 3 9 10 7 17 13 14 15 11 16 18 19 20 21 22 23 24  :  - 18 141689 0.24
5 1 2 3 4 10 6 7 8 9 11 12 B 13 14 15 16 17 18 19 20 21 22 23 24  :  - 6 222 0
B 2 3 8 4 6 1 5 7 9 10 11 12 13 14 15 16 17 18 19 20 21 22 23 24  :  - 16 20616 0.03
5 1 2 9 3 6 11 7 8 4 10 16 12 13 14 15 B 17 18 19 20 21 22 23 24  :  - 17 108778 0.21
1 2 7 3 4 5 6 12 8 9 10 16 11 13 14 15 22 21 18 19 20 17 B 23 24  :  - 18 141155 0.24
1 6 2 3 4 5 11 7 8 9 15 10 12 13 14 20 16 17 18 19 21 22 B 23 24  :  - 12 4037 0.01
5 1 2 8 4 10 6 3 7 9 B 11 12 13 14 15 16 17 18 19 20 21 22 23 24  :  - 14 14457 0.02
B 1 2 3 4 5 6 7 8 9 10 11 12 13 14 15 16 17 18 19 20 21 22 23 24  :  - 0 0 0
10 5 2 3 4 11 1 6 8 9 B 12 7 13 14 15 16 17 18 19 20 21 22 23 24  :  - 16 41727 0.06
1 10 2 3 4 5 B 7 8 9 11 6 12 13 14 15 16 17 18 19 20 21 22 23 24  :  - 13 6670 0.01
5 1 2 3 4 10 6 7 8 9 16 12 17 13 14 11 B 15 18 19 20 21 22 23 24  :  - 15 21727 0.03
1 6 2 3 4 5 7 12 8 9 16 15 11 13 14 10 21 17 18 19 20 22 23 24 B  :  - 20 216976 0.43
5 7 1 3 4 10 6 2 8 9 B 11 12 13 14 15 16 17 18 19 20 21 22 23 24  :  - 12 5567 0
1 2 B 8 4 5 6 3 7 9 10 11 12 17 14 15 16 22 13 19 20 21 23 18 24  :  - 22 948177 1.96
5 1 3 4 9 6 7 2 8 14 10 11 12 13 B 15 16 17 18 19 20 21 22 23 24  :  - 12 5479 0
5 1 2 3 4 6 7 8 13 9 10 11 12 18 14 15 16 17 19 24 20 21 B 22 23  :  - 14 11361 0.02
1 2 7 4 9 5 6 8 3 14 10 11 12 18 13 15 B 17 23 19 20 16 21 22 24  :  - 21 973994 2.02
1 2 3 8 4 5 6 7 9 14 10 11 12 13 B 15 16 17 18 19 20 21 22 23 24  :  - 8 489 0
5 1 2 3 4 10 6 12 8 9 15 7 B 13 14 16 21 11 18 19 20 22 17 23 24  :  - 22 1881781 4.03
1 6 2 3 4 5 B 7 8 9 10 11 12 13 14 15 16 17 18 19 20 21 22 23 24  :  - 3 27 0
5 1 2 3 B 10 6 7 8 4 15 11 13 14 9 16 21 12 18 19 20 22 17 23 24  :  - 20 212686 0.42
5 1 2 3 4 6 11 7 8 9 10 16 B 13 14 15 17 12 22 19 20 21 23 18 24  :  - 16 49479 0.08
7 6 2 3 4 1 5 12 8 9 10 11 B 13 14 15 16 17 18 19 20 21 22 23 24  :  - 18 177234 0.3
5 1 2 9 3 6 11 8 13 4 10 12 7 14 B 15 16 17 18 19 20 21 22 23 24  :  - 18 103537 0.2
5 1 2 3 4 10 6 7 8 9 15 11 12 13 14 20 16 17 18 19 B 21 22 23 24  :  - 8 305 0
5 1 B 3 4 10 7 2 8 9 16 6 12 13 14 11 15 17 18 19 20 21 22 23 24  :  - 16 30522 0.05
5 2 3 8 4 6 1 7 B 9 10 11 12 13 14 15 16 17 18 19 20 21 22 23 24  :  - 9 1129 0
5 1 2 3 4 10 B 7 8 9 11 6 12 13 14 15 16 17 18 19 20 21 22 23 24  :  - 7 238 0
1 6 2 3 4 5 B 7 8 9 10 11 12 13 14 15 16 17 18 19 20 21 22 23 24  :  - 3 27 0
5 2 B 3 4 6 1 7 8 9 10 11 12 13 14 15 16 17 18 19 20 21 22 23 24  :  - 6 143 0
5 2 3 4 B 10 1 7 8 9 11 6 12 13 14 15 16 17 18 19 20 21 22 23 24  :  - 12 2954 0
6 5 B 3 4 1 11 2 8 9 10 12 7 13 14 15 16 17 18 19 20 21 22 23 24  :  - 16 38326 0.06
1 2 7 4 B 5 6 8 3 9 10 11 12 13 14 15 16 17 18 19 20 21 22 23 24  :  - 8 344 0
5 2 3 4 B 6 1 7 8 9 10 11 12 13 14 15 16 17 18 19 20 21 22 23 24  :  - 8 305 0
1 7 12 3 4 5 2 11 8 9 B 6 17 13 14 10 15 16 18 19 20 21 22 23 24  :  - 22 942675 1.94
10 5 2 3 4 1 6 7 8 9 B 11 12 13 14 15 16 17 18 19 20 21 22 23 24  :  - 16 47894 0.07
5 1 B 3 4 6 7 2 8 9 10 11 12 13 14 15 16 17 18 19 20 21 22 23 24  :  - 6 85 0
1 6 2 3 4 5 11 7 8 9 15 10 12 13 14 20 16 17 18 19 21 22 B 23 24  :  - 12 4037 0
1 2 3 8 4 5 6 7 13 9 10 11 12 18 14 15 16 17 B 24 20 21 22 19 23  :  - 15 31036 0.05
1 2 7 3 4 5 6 8 B 9 10 11 12 13 14 15 16 17 18 19 20 21 22 23 24  :  - 5 112 0
5 1 2 3 B 6 11 7 9 4 10 12 13 8 14 15 16 17 18 19 20 21 22 23 24  :  - 12 2999 0.01
5 1 B 3 4 6 7 2 8 9 10 11 12 13 14 15 16 17 18 19 20 21 22 23 24  :  - 6 85 0
1 7 6 2 4 5 8 3 13 9 10 11 12 18 14 15 16 17 B 19 20 21 22 23 24  :  - 17 92539 0.15
5 1 2 3 4 10 6 7 8 9 15 11 12 13 14 16 21 17 18 19 20 22 B 23 24  :  - 10 1270 0
5 2 7 3 4 6 1 8 13 9 10 16 11 12 14 15 B 17 18 19 20 21 22 23 24  :  - 15 22802 0.03
6 5 2 3 4 1 11 7 8 9 B 10 12 13 14 15 16 17 18 19 20 21 22 23 24  :  - 12 4592 0.01
