4 2 B 3 9 1 6 7 5 8 10 11 12 13 14 15  :  - 8 1622 0
1 2 6 3 4 B 5 7 8 9 10 11 12 13 14 15  :  - 4 93 0
4 1 2 3 5 6 7 B 8 9 10 11 12 13 14 15  :  - 4 57 0
4 1 2 3 8 5 6 7 9 10 B 11 12 13 14 15  :  - 4 92 0
4 1 2 3 9 B 8 7 13 10 6 11 5 12 14 15  :  - 14 128451 0.09
1 5 2 3 4 B 11 7 8 9 6 10 12 13 14 15  :  - 12 50909 0.03
5 2 6 3 1 B 4 7 8 9 10 11 12 13 14 15  :  - 8 1955 0
4 6 1 3 8 2 10 7 9 5 B 11 12 13 14 15  :  - 10 12554 0.01
4 2 B 3 8 1 6 7 9 5 10 11 12 13 14 15  :  - 6 394 0
4 1 2 3 5 9 7 B 8 10 6 11 12 13 14 15  :  - 6 347 0
4 1 B 3 5 6 10 7 8 9 11 2 12 13 14 15  :  - 12 24868 0.01
4 1 2 3 8 B 6 7 12 5 10 11 13 9 14 15  :  - 6 640 0
1 2 6 3 4 5 7 11 8 9 B 10 12 13 14 15  :  - 6 383 0
4 1 2 3 8 B 5 7 9 10 6 15 12 13 11 14  :  - 10 7771 0.01
4 1 2 3 5 9 6 7 8 10 11 15 12 13 14 B  :  - 6 331 0
4 2 3 7 1 8 10 6 B 5 14 11 12 9 13 15  :  - 16 517982 0.4
4 9 1 2 5 B 6 3 8 10 11 7 12 13 14 15  :  - 10 12177 0.01
4 1 2 3 8 5 6 7 B 9 10 11 12 13 14 15  :  - 2 22 0
1 3 7 6 4 2 5 11 8 9 14 10 12 B 13 15  :  - 14 102463 0.06
1 5 2 3 4 9 6 7 8 10 14 11 12 13 15 B  :  - 6 284 0
4 1 5 3 6 9 2 7 8 13 10 11 12 B 14 15  :  - 10 10147 0.01
4 1 2 3 5 9 6 7 13 12 10 11 8 14 15 B  :  - 10 4484 0
4 1 2 3 9 13 6 7 B 5 10 11 8 12 14 15  :  - 10 7366 0.01
1 5 2 3 4 B 10 7 14 6 13 11 8 12 9 15  :  - 14 189274 0.13
4 1 2 3 8 5 6 B 12 10 14 7 13 9 15 11  :  - 10 9315 0
5 2 6 3 1 4 11 B 8 9 7 10 12 13 14 15  :  - 12 26737 0.02
4 1 2 3 5 6 10 7 8 9 14 11 12 B 13 15  :  - 6 331 0
4 1 B 3 8 5 2 6 9 10 11 7 12 13 14 15  :  - 8 1788 0
1 5 2 3 6 B 10 7 4 13 9 11 8 12 14 15  :  - 10 9334 0
B 2 6 3 5 1 4 7 8 9 10 11 12 13 14 15  :  - 10 6548 0.01
4 1 2 3 8 5 6 7 12 9 10 11 13 B 14 15  :  - 4 88 0
4 1 2 3 8 5 6 B 12 9 10 7 13 14 15 11  :  - 8 2110 0
1 5 2 3 4 9 6 7 13 12 10 11 8 B 14 15  :  - 8 2086 0
4 5 1 2 8 B 7 3 9 10 6 11 12 13 14 15  :  - 10 12097 0.01
4 1 2 3 8 B 11 6 9 5 10 7 12 13 14 15  :  - 10 10408 0.01
4 1 2 3 8 5 6 7 B 9 10 11 12 13 14 15  :  - 2 22 0
4 1 3 7 5 B 6 2 8 9 10 11 12 13 14 15  :  - 8 1620 0
4 1 2 3 5 B 6 7 8 9 10 11 12 13 14 15  :  - 2 23 0
1 2 B 3 4 8 6 7 9 5 10 11 12 13 14 15  :  - 8 1419 0
1 2 6 3 4 5 10 7 8 9 B 11 12 13 14 15  :  - 4 148 0
1 2 6 3 4 5 10 B 8 9 11 7 12 13 14 15  :  - 6 459 0
2 5 B 3 1 6 4 7 8 9 10 11 12 13 14 15  :  - 12 29517 0.02
1 2 B 7 4 5 3 6 8 9 10 11 12 13 14 15  :  - 6 423 0
1 2 B 7 4 5 3 6 8 9 10 11 12 13 14 15  :  - 6 423 0
1 2 B 3 4 5 6 7 8 9 10 11 12 13 14 15  :  - 2 11 0
1 2 9 3 4 5 6 7 8 10 B 11 12 13 14 15  :  - 10 13068 0.01
4 1 2 3 9 6 10 7 5 13 14 11 8 12 15 B  :  - 12 24444 0.01
1 5 3 7 6 10 9 2 4 8 B 11 12 13 14 15  :  - 14 201502 0.13
4 1 B 2 5 9 6 3 8 10 11 7 12 13 14 15  :  - 8 1306 0.01
B 4 2 3 8 1 6 7 9 5 13 11 12 14 10 15  :  - 10 5720 0
1 5 2 3 4 6 10 B 8 9 11 7 12 13 14 15  :  - 6 456 0
4 1 2 3 8 10 5 7 9 13 6 11 12 14 15 B  :  - 10 4627 0
1 5 2 3 4 6 7 11 8 9 B 15 12 13 10 14  :  - 8 2381 0
1 2 6 3 4 B 10 7 8 5 9 11 12 13 14 15  :  - 6 570 0
4 1 2 3 5 6 10 B 8 9 14 7 12 13 15 11  :  - 8 2188 0
4 1 2 3 8 B 6 7 12 5 10 11 13 9 14 15  :  - 6 640 0
B 2 3 7 5 1 4 6 8 9 10 11 12 13 14 15  :  - 12 26153 0.02
4 1 3 7 5 6 2 11 8 9 10 15 12 B 13 14  :  - 10 5541 0
5 1 6 3 4 2 10 7 12 8 9 11 13 B 14 15  :  - 14 136345 0.1
1 5 2 3 4 9 6 7 8 13 10 11 12 14 15 B  :  - 6 245 0
4 1 2 3 8 5 6 7 B 9 10 11 12 13 14 15  :  - 2 22 0
B 1 2 3 4 5 6 7 8 9 10 11 12 13 14 15  :  - 0 0 0
8 4 2 3 9 1 5 7 B 10 6 14 12 13 15 11  :  - 14 178052 0.11
4 5 1 2 8 B 6 3 9 10 11 7 12 13 14 15  :  - 10 12161 0.01
4 1 2 3 8 5 6 B 9 13 10 7 12 14 15 11  :  - 8 2129 0
1 5 2 3 4 6 10 7 8 13 9 11 12 14 15 B  :  - 8 980 0
4 6 1 2 8 5 7 3 B 9 10 11 12 13 14 15  :  - 10 9734 0.01
1 2 3 7 4 5 6 11 8 9 B 10 12 13 14 15  :  - 6 387 0
4 6 1 3 5 B 2 7 8 9 10 11 12 13 14 15  :  - 6 661 0
4 1 2 3 5 6 10 7 B 9 11 15 8 12 13 14  :  - 10 7789 0
1 2 6 3 4 5 7 11 B 9 10 15 8 12 13 14  :  - 10 7834 0.01
1 2 3 7 4 5 6 11 8 9 10 15 12 13 14 B  :  - 6 406 0
4 1 2 3 8 B 10 7 6 5 9 11 12 13 14 15  :  - 10 11219 0
1 5 2 3 4 B 6 7 8 9 10 11 12 13 14 15  :  - 2 33 0
B 1 2 3 4 5 6 7 8 12 10 11 13 9 14 15  :  - 8 1774 0
4 1 2 3 5 B 6 7 8 9 13 11 12 14 10 15  :  - 8 2441 0.01
6 5 7 2 1 4 10 3 8 9 B 11 12 13 14 15  :  - 14 224133 0.14
4 9 1 3 5 B 2 7 8 10 6 11 12 13 14 15  :  - 8 2997 0.01
4 1 2 3 8 5 6 7 13 12 9 11 14 B 10 15  :  - 10 6928 0
4 1 2 3 8 5 6 7 12 10 11 15 13 9 14 B  :  - 8 1447 0
4 2 6 3 5 1 7 B 8 9 10 11 12 13 14 15  :  - 6 391 0
4 1 2 3 8 5 6 7 B 9 14 11 12 10 13 15  :  - 8 1452 0
1 5 2 3 4 B 6 7 8 9 10 11 12 13 14 15  :  - 2 33 0
4 1 2 3 5 6 10 7 8 9 B 11 12 13 14 15  :  - 4 135 0
4 2 3 7 8 1 6 B 9 5 10 11 12 13 14 15  :  - 8 2289 0.01
5 4 B 3 1 9 2 7 8 10 6 11 12 13 14 15  :  - 10 10144 0
1 2 B 6 4 5 7 3 8 9 10 11 12 13 14 15  :  - 6 284 0
4 2 3 7 5 1 6 B 8 9 10 11 12 13 14 15  :  - 6 504 0
1 6 3 7 4 2 10 11 8 5 B 9 12 13 14 15  :  - 12 31973 0.02
8 4 2 3 1 5 6 7 B 9 10 11 12 13 14 15  :  - 10 7462 0.01
4 1 B 3 5 6 2 7 8 9 10 11 12 13 14 15  :  - 4 97 0
1 5 2 3 4 9 6 7 B 12 10 11 13 8 14 15  :  - 8 1523 0
1 2 3 7 4 5 10 6 8 9 B 15 12 13 11 14  :  - 10 10045 0.01
1 2 B 3 4 5 6 7 8 9 10 11 12 13 14 15  :  - 2 11 0
4 1 2 3 5 9 6 B 8 10 11 7 12 13 14 15  :  - 6 420 0
4 1 2 3 5 6 7 B 8 9 10 11 12 13 14 15  :  - 4 57 0
1 5 7 2 4 6 10 3 8 9 B 11 12 13 14 15  :  - 8 2991 0
4 1 2 3 8 5 6 7 B 9 10 11 12 13 14 15  :  - 2 22 0
4 2 3 7 5 1 6 11 8 13 9 10 12 B 14 15  :  - 10 8065 0
B 4 2 3 5 9 6 7 1 8 10 11 12 13 14 15  :  - 10 7945 0.01
