5 2 3 8 4 6 1 7 13 9 B 11 17 12 14 10 21 16 18 19 15 20 22 23 24  :  - 22 4213623 0.75
1 2 7 4 9 5 6 8 3 14 10 11 12 13 19 15 16 17 B 18 20 21 22 23 24  :  - 15 57777 0.01
5 1 2 3 4 6 7 12 8 9 10 11 B 13 14 15 16 17 18 19 20 21 22 23 24  :  - 6 542 0
5 1 2 3 4 10 6 7 8 9 11 12 B 17 14 15 16 22 13 19 20 21 23 18 24  :  - 16 126020 0.02
5 1 2 3 4 11 10 7 8 9 6 16 B 12 14 15 17 18 13 19 20 21 22 23 24  :  - 18 390776 0.07
1 2 7 3 4 5 B 6 8 9 10 11 12 13 14 15 16 17 18 19 20 21 22 23 24  :  - 5 176 0
6 2 7 3 4 1 B 5 8 9 10 11 12 13 14 15 16 17 18 19 20 21 22 23 24  :  - 11 6435 0
5 7 1 3 4 10 2 12 8 9 11 6 B 13 14 15 16 17 18 19 20 21 22 23 24  :  - 16 192724 0.03
5 2 B 3 4 10 1 7 8 9 11 6 12 13 14 15 16 17 18 19 20 21 22 23 24  :  - 10 2897 0
5 1 B 2 4 6 11 8 3 9 10 12 7 13 14 15 16 17 18 19 20 21 22 23 24  :  - 12 7509 0.01
5 1 3 8 B 6 7 2 13 4 10 11 12 18 9 15 16 17 19 14 20 21 22 23 24  :  - 20 875494 0.15
5 1 2 3 4 10 6 7 8 9 15 11 12 13 14 21 20 17 18 19 16 22 B 23 24  :  - 16 83948 0.02
1 2 8 4 B 5 6 3 7 9 10 11 12 13 14 15 16 17 18 19 20 21 22 23 24  :  - 10 1597 0
5 1 2 3 4 10 6 7 8 9 11 12 B 17 14 15 16 18 13 24 20 21 22 19 23  :  - 18 402086 0.07
5 1 B 2 3 6 11 7 9 4 10 12 13 8 14 15 16 17 18 19 20 21 22 23 24  :  - 14 21388 0.01
5 2 3 8 4 6 1 7 13 9 10 11 12 14 19 15 B 16 18 24 20 21 17 22 23  :  - 21 1933509 0.34
5 1 2 3 4 6 11 7 8 9 10 12 13 18 14 15 16 17 23 19 20 21 22 24 B  :  - 12 6616 0
5 1 2 3 4 10 6 7 8 9 B 11 12 13 14 15 16 17 18 19 20 21 22 23 24  :  - 4 104 0
1 2 3 4 9 5 6 7 8 14 10 11 12 13 19 15 16 17 23 18 20 21 B 22 24  :  - 14 22866 0
1 6 2 3 4 5 11 7 8 9 10 12 17 13 14 20 15 18 B 19 21 22 16 23 24  :  - 17 214303 0.04
1 6 2 3 4 5 7 12 8 9 10 11 B 13 14 15 16 17 18 19 20 21 22 23 24  :  - 6 557 0
5 1 2 3 4 6 11 7 8 9 10 16 12 13 14 20 15 17 18 19 B 21 22 23 24  :  - 10 2388 0
5 1 2 3 4 11 16 7 8 9 10 6 12 13 14 15 17 18 B 19 20 21 22 23 24  :  - 21 1969264 0.35
1 6 2 3 4 5 B 12 8 9 10 7 17 13 14 15 11 18 23 19 20 16 21 22 24  :  - 19 881814 0.16
5 1 2 3 4 10 6 7 8 9 15 11 12 13 B 16 17 18 23 14 20 21 22 24 19  :  - 16 127204 0.02
6 5 2 3 4 1 B 7 8 9 10 11 12 13 14 15 16 17 18 19 20 21 22 23 24  :  - 9 2235 0
6 5 2 3 4 10 1 12 8 9 B 7 11 13 14 15 16 17 18 19 20 21 22 23 24  :  - 16 140439 0.03
5 1 2 3 4 10 6 7 B 14 11 12 13 9 19 15 16 17 8 18 20 21 22 23 24  :  - 19 862845 0.15
1 6 B 2 4 5 7 8 3 9 10 11 12 13 14 15 16 22 18 19 20 17 21 23 24  :  - 22 2477561 0.44
B 2 7 3 4 6 1 5 8 9 10 11 12 13 14 15 16 17 18 19 20 21 22 23 24  :  - 14 23359 0
5 1 2 3 4 10 6 7 8 9 11 16 12 13 14 15 B 17 18 19 20 21 22 23 24  :  - 7 805 0
5 1 2 3 4 10 6 7 8 9 15 11 B 12 14 20 16 17 13 19 21 22 23 18 24  :  - 16 125141 0.03
1 6 2 3 4 10 5 7 8 9 15 11 12 13 14 20 16 17 18 19 21 22 B 23 24  :  - 12 8466 0
5 6 1 2 4 10 B 7 3 9 11 12 13 8 14 15 16 17 18 19 20 21 22 23 24  :  - 15 87491 0.01
5 1 2 3 4 10 6 7 8 9 B 16 12 13 14 11 15 17 18 19 20 21 22 23 24  :  - 10 3746 0
5 1 2 3 4 10 6 7 8 9 11 16 B 13 14 15 17 12 18 19 20 21 22 23 24  :  - 10 5252 0
5 7 1 3 4 6 B 2 8 9 10 11 12 13 14 15 16 17 18 19 20 21 22 23 24  :  - 9 2662 0
5 1 2 3 4 6 B 7 8 9 10 11 12 13 14 15 16 17 18 19 20 21 22 23 24  :  - 3 50 0
1 2 B 3 4 5 10 7 8 9 11 6 12 13 14 15 16 17 18 19 20 21 22 23 24  :  - 12 8248 0.01
1 2 7 3 4 5 6 12 8 9 10 11 B 13 14 15 16 17 18 19 20 21 22 23 24  :  - 6 565 0
1 2 7 13 B 5 6 8 4 3 10 11 12 18 9 15 16 17 19 14 20 21 22 23 24  :  - 22 2619100 0.46
1 2 3 4 9 5 6 7 8 14 10 11 12 13 B 15 16 17 18 19 20 21 22 23 24  :  - 8 1296 0
1 2 3 8 4 5 6 7 B 14 10 11 12 9 13 15 16 17 18 19 20 21 22 23 24  :  - 11 7434 0.01
1 2 3 4 9 5 6 12 7 8 10 11 17 13 14 15 16 18 B 19 20 21 22 23 24  :  - 13 22735 0
1 2 3 8 4 5 6 7 B 9 10 11 12 13 14 15 16 17 18 19 20 21 22 23 24  :  - 5 236 0
1 2 11 3 4 5 6 8 9 14 10 12 7 18 13 15 16 17 B 19 20 21 22 23 24  :  - 21 2702764 0.49
5 1 3 4 9 6 11 2 13 8 10 16 7 14 B 15 17 12 18 19 20 21 22 23 24  :  - 22 3580989 0.63
1 6 2 3 9 5 7 4 8 14 10 11 12 13 B 15 16 17 18 19 20 21 22 23 24  :  - 18 418143 0.07
5 1 2 3 4 6 11 8 B 9 10 12 7 13 14 15 16 17 18 19 20 21 22 23 24  :  - 9 2097 0
5 1 2 3 4 10 6 7 8 9 11 16 12 13 14 15 17 18 B 19 20 21 22 23 24  :  - 9 1923 0
1 2 3 9 8 5 6 7 4 14 10 11 B 12 13 15 16 17 18 19 20 21 22 23 24  :  - 16 115943 0.02
5 1 2 3 4 10 12 6 8 9 11 16 7 13 14 15 B 17 18 19 20 21 22 23 24  :  - 13 27748 0.01
1 6 2 3 4 5 7 8 B 9 10 11 12 13 14 15 16 17 18 19 20 21 22 23 24  :  - 5 169 0
1 8 2 4 9 5 6 7 B 3 10 11 12 13 14 15 16 17 18 19 20 21 22 23 24  :  - 19 574716 0.1
5 1 B 2 4 6 12 8 3 9 10 7 17 13 14 15 11 16 18 19 20 21 22 23 24  :  - 18 240486 0.05
5 1 2 3 4 10 6 7 8 9 11 12 B 13 14 15 16 17 18 19 20 21 22 23 24  :  - 6 404 0
B 2 3 8 4 6 1 5 7 9 10 11 12 13 14 15 16 17 18 19 20 21 22 23 24  :  - 16 71742 0.01
5 1 2 9 3 6 11 7 8 4 10 16 12 13 14 15 B 17 18 19 20 21 22 23 24  :  - 17 284942 0.05
1 2 7 3 4 5 6 12 8 9 10 16 11 13 14 15 22 21 18 19 20 17 B 23 24  :  - 18 289047 0.05
1 6 2 3 4 5 11 7 8 9 15 10 12 13 14 20 16 17 18 19 21 22 B 23 24  :  - 12 8435 0
5 1 2 8 4 10 6 3 7 9 B 11 12 13 14 15 16 17 18 19 20 21 22 23 24  :  - 14 43266 0.01
B 1 2 3 4 5 6 7 8 9 10 11 12 13 14 15 16 17 18 19 20 21 22 23 24  :  - 0 1 0
10 5 2 3 4 11 1 6 8 9 B 12 7 13 14 15 16 17 18 19 20 21 22 23 24  :  - 16 139865 0.02
1 10 2 3 4 5 B 7 8 9 11 6 12 13 14 15 16 17 18 19 20 21 22 23 24  :  - 13 28086 0.01
5 1 2 3 4 10 6 7 8 9 16 12 17 13 14 11 B 15 18 19 20 21 22 23 24  :  - 15 63984 0.01
1 6 2 3 4 5 7 12 8 9 16 15 11 13 14 10 21 17 18 19 20 22 23 24 B  :  - 20 535658 0.1
5 7 1 3 4 10 6 2 8 9 B 11 12 13 14 15 16 17 18 19 20 21 22 23 24  :  - 12 13333 0
1 2 B 8 4 5 6 3 7 9 10 11 12 17 14 15 16 22 13 19 20 21 23 18 24  :  - 22 3766912 0.67
5 1 3 4 9 6 7 2 8 14 10 11 12 13 B 15 16 17 18 19 20 21 22 23 24  :  - 12 13484 0
5 1 2 3 4 6 7 8 13 9 10 11 12 18 14 15 16 17 19 24 20 21 B 22 23  :  - 14 21679 0.01
1 2 7 4 9 5 6 8 3 14 10 11 12 18 13 15 B 17 23 19 20 16 21 22 24  :  - 21 2519823 0.44
1 2 3 8 4 5 6 7 9 14 10 11 12 13 B 15 16 17 18 19 20 21 22 23 24  :  - 8 1285 0
5 1 2 3 4 10 6 12 8 9 15 7 B 13 14 16 21 11 18 19 20 22 17 23 24  :  - 22 5907113 1.05
1 6 2 3 4 5 B 7 8 9 10 11 12 13 14 15 16 17 18 19 20 21 22 23 24  :  - 3 65 0
5 1 2 3 B 10 6 7 8 4 15 11 13 14 9 16 21 12 18 19 20 22 17 23 24  :  - 20 841346 0.15
5 1 2 3 4 6 11 7 8 9 10 16 B 13 14 15 17 12 22 19 20 21 23 18 24  :  - 16 164805 0.03
7 6 2 3 4 1 5 12 8 9 10 11 B 13 14 15 16 17 18 19 20 21 22 23 24  :  - 18 628885 0.11
5 1 2 9 3 6 11 8 13 4 10 12 7 14 B 15 16 17 18 19 20 21 22 23 24  :  - 18 367058 0.06
5 1 2 3 4 10 6 7 8 9 15 11 12 13 14 20 16 17 18 19 B 21 22 23 24  :  - 8 761 0
5 1 B 3 4 10 7 2 8 9 16 6 12 13 14 11 15 17 18 19 20 21 22 23 24  :  - 16 109127 0.02
5 2 3 8 4 6 1 7 B 9 10 11 12 13 14 15 16 17 18 19 20 21 22 23 24  :  - 9 2666 0
5 1 2 3 4 10 B 7 8 9 11 6 12 13 14 15 16 17 18 19 20 21 22 23 24  :  - 7 760 0
1 6 2 3 4 5 B 7 8 9 10 11 12 13 14 15 16 17 18 19 20 21 22 23 24  :  - 3 65 0
5 2 B 3 4 6 1 7 8 9 10 11 12 13 14 15 16 17 18 19 20 21 22 23 24  :  - 6 247 0
5 2 3 4 B 10 1 7 8 9 11 6 12 13 14 15 16 17 18 19 20 21 22 23 24  :  - 12 5061 0
6 5 B 3 4 1 11 2 8 9 10 12 7 13 14 15 16 17 18 19 20 21 22 23 24  :  - 16 116999 0.03
1 2 7 4 B 5 6 8 3 9 10 11 12 13 14 15 16 17 18 19 20 21 22 23 24  :  - 8 586 0
5 2 3 4 B 6 1 7 8 9 10 11 12 13 14 15 16 17 18 19 20 21 22 23 24  :  - 8 448 0
1 7 12 3 4 5 2 11 8 9 B 6 17 13 14 10 15 16 18 19 20 21 22 23 24  :  - 22 3995344 0.71
10 5 2 3 4 1 6 7 8 9 B 11 12 13 14 15 16 17 18 19 20 21 22 23 24  :  - 16 113736 0.02
5 1 B 3 4 6 7 2 8 9 10 11 12 13 14 15 16 17 18 19 20 21 22 23 24  :  - 6 286 0
1 6 2 3 4 5 11 7 8 9 15 10 12 13 14 20 16 17 18 19 21 22 B 23 24  :  - 12 8435 0
1 2 3 8 4 5 6 7 13 9 10 11 12 18 14 15 16 17 B 24 20 21 22 19 23  :  - 15 75985 0.01
1 2 7 3 4 5 6 8 B 9 10 11 12 13 14 15 16 17 18 19 20 21 22 23 24  :  - 5 194 0
5 1 2 3 B 6 11 7 9 4 10 12 13 8 14 15 16 17 18 19 20 21 22 23 24  :  - 12 7476 0
5 1 B 3 4 6 7 2 8 9 10 11 12 13 14 15 16 17 18 19 20 21 22 23 24  :  - 6 286 0
1 7 6 2 4 5 8 3 13 9 10 11 12 18 14 15 16 17 B 19 20 21 22 23 24  :  - 17 287203 0.05
5 1 2 3 4 10 6 7 8 9 15 11 12 13 14 16 21 17 18 19 20 22 B 23 24  :  - 10 2816 0
5 2 7 3 4 6 1 8 13 9 10 16 11 12 14 15 B 17 18 19 20 21 22 23 24  :  - 15 82449 0.02
6 5 2 3 4 1 11 7 8 9 B 10 12 13 14 15 16 17 18 19 20 21 22 23 24  :  - 12 11021 0
