4 2 B 3 9 1 6 7 5 8 10 11 12 13 14 15  :  - 12 1426 0
1 2 6 3 4 B 5 7 8 9 10 11 12 13 14 15  :  - 5 78 0
4 1 2 3 5 6 7 B 8 9 10 11 12 13 14 15  :  - 5 68 0
4 1 2 3 8 5 6 7 9 10 B 11 12 13 14 15  :  - 6 85 0
4 1 2 3 9 B 8 7 13 10 6 11 5 12 14 15  :  - 21 144888 0.24
1 5 2 3 4 B 11 7 8 9 6 10 12 13 14 15  :  - 17 21193 0.03
5 2 6 3 1 B 4 7 8 9 10 11 12 13 14 15  :  - 11 1176 0
4 6 1 3 8 2 10 7 9 5 B 11 12 13 14 15  :  - 16 15866 0.02
4 2 B 3 8 1 6 7 9 5 10 11 12 13 14 15  :  - 10 596 0
4 1 2 3 5 9 7 B 8 10 6 11 12 13 14 15  :  - 9 502 0
4 1 B 3 5 6 10 7 8 9 11 2 12 13 14 15  :  - 18 36909 0.05
4 1 2 3 8 B 6 7 12 5 10 11 13 9 14 15  :  - 11 1354 0
1 2 6 3 4 5 7 11 8 9 B 10 12 13 14 15  :  - 8 261 0
4 1 2 3 8 B 5 7 9 10 6 15 12 13 11 14  :  - 15 11908 0.02
4 1 2 3 5 9 6 7 8 10 11 15 12 13 14 B  :  - 9 373 0
4 2 3 7 1 8 10 6 B 5 14 11 12 9 13 15  :  - 24 575237 1.03
4 9 1 2 5 B 6 3 8 10 11 7 12 13 14 15  :  - 15 10773 0.02
4 1 2 3 8 5 6 7 B 9 10 11 12 13 14 15  :  - 4 26 0
1 3 7 6 4 2 5 11 8 9 14 10 12 B 13 15  :  - 19 39065 0.05
1 5 2 3 4 9 6 7 8 10 14 11 12 13 15 B  :  - 9 313 0
4 1 5 3 6 9 2 7 8 13 10 11 12 B 14 15  :  - 15 6517 0.01
4 1 2 3 5 9 6 7 13 12 10 11 8 14 15 B  :  - 15 5458 0
4 1 2 3 9 13 6 7 B 5 10 11 8 12 14 15  :  - 16 10734 0.02
1 5 2 3 4 B 10 7 14 6 13 11 8 12 9 15  :  - 21 143572 0.22
4 1 2 3 8 5 6 B 12 10 14 7 13 9 15 11  :  - 17 24290 0.04
5 2 6 3 1 4 11 B 8 9 7 10 12 13 14 15  :  - 17 19007 0.02
4 1 2 3 5 6 10 7 8 9 14 11 12 B 13 15  :  - 9 332 0
4 1 B 3 8 5 2 6 9 10 11 7 12 13 14 15  :  - 12 1975 0
1 5 2 3 6 B 10 7 4 13 9 11 8 12 14 15  :  - 15 10529 0.02
B 2 6 3 5 1 4 7 8 9 10 11 12 13 14 15  :  - 14 4323 0
4 1 2 3 8 5 6 7 12 9 10 11 13 B 14 15  :  - 7 182 0
4 1 2 3 8 5 6 B 12 9 10 7 13 14 15 11  :  - 13 3258 0.01
1 5 2 3 4 9 6 7 13 12 10 11 8 B 14 15  :  - 13 2343 0
4 5 1 2 8 B 7 3 9 10 6 11 12 13 14 15  :  - 15 11941 0.01
4 1 2 3 8 B 11 6 9 5 10 7 12 13 14 15  :  - 15 11734 0.02
4 1 2 3 8 5 6 7 B 9 10 11 12 13 14 15  :  - 4 26 0
4 1 3 7 5 B 6 2 8 9 10 11 12 13 14 15  :  - 11 1586 0
4 1 2 3 5 B 6 7 8 9 10 11 12 13 14 15  :  - 3 27 0
1 2 B 3 4 8 6 7 9 5 10 11 12 13 14 15  :  - 12 1678 0
1 2 6 3 4 5 10 7 8 9 B 11 12 13 14 15  :  - 6 89 0
1 2 6 3 4 5 10 B 8 9 11 7 12 13 14 15  :  - 9 364 0
2 5 B 3 1 6 4 7 8 9 10 11 12 13 14 15  :  - 16 15104 0.03
1 2 B 7 4 5 3 6 8 9 10 11 12 13 14 15  :  - 8 237 0
1 2 B 7 4 5 3 6 8 9 10 11 12 13 14 15  :  - 8 237 0
1 2 B 3 4 5 6 7 8 9 10 11 12 13 14 15  :  - 2 9 0
1 2 9 3 4 5 6 7 8 10 B 11 12 13 14 15  :  - 16 13129 0.02
4 1 2 3 9 6 10 7 5 13 14 11 8 12 15 B  :  - 19 40930 0.06
1 5 3 7 6 10 9 2 4 8 B 11 12 13 14 15  :  - 20 88821 0.13
4 1 B 2 5 9 6 3 8 10 11 7 12 13 14 15  :  - 12 1589 0
B 4 2 3 8 1 6 7 9 5 13 11 12 14 10 15  :  - 16 9558 0.01
1 5 2 3 4 6 10 B 8 9 11 7 12 13 14 15  :  - 9 422 0
4 1 2 3 8 10 5 7 9 13 6 11 12 14 15 B  :  - 15 7587 0.01
1 5 2 3 4 6 7 11 8 9 B 15 12 13 10 14  :  - 12 2785 0
1 2 6 3 4 B 10 7 8 5 9 11 12 13 14 15  :  - 9 614 0
4 1 2 3 5 6 10 B 8 9 14 7 12 13 15 11  :  - 13 3583 0.01
4 1 2 3 8 B 6 7 12 5 10 11 13 9 14 15  :  - 11 1354 0
B 2 3 7 5 1 4 6 8 9 10 11 12 13 14 15  :  - 16 9351 0.01
4 1 3 7 5 6 2 11 8 9 10 15 12 B 13 14  :  - 15 9331 0.01
5 1 6 3 4 2 10 7 12 8 9 11 13 B 14 15  :  - 21 119367 0.2
1 5 2 3 4 9 6 7 8 13 10 11 12 14 15 B  :  - 9 253 0
4 1 2 3 8 5 6 7 B 9 10 11 12 13 14 15  :  - 4 26 0
B 1 2 3 4 5 6 7 8 9 10 11 12 13 14 15  :  - 0 0 0
8 4 2 3 9 1 5 7 B 10 6 14 12 13 15 11  :  - 22 261862 0.46
4 5 1 2 8 B 6 3 9 10 11 7 12 13 14 15  :  - 15 7785 0
4 1 2 3 8 5 6 B 9 13 10 7 12 14 15 11  :  - 13 2909 0.01
1 5 2 3 4 6 10 7 8 13 9 11 12 14 15 B  :  - 11 940 0
4 6 1 2 8 5 7 3 B 9 10 11 12 13 14 15  :  - 14 5887 0.01
1 2 3 7 4 5 6 11 8 9 B 10 12 13 14 15  :  - 8 316 0
4 6 1 3 5 B 2 7 8 9 10 11 12 13 14 15  :  - 9 521 0
4 1 2 3 5 6 10 7 B 9 11 15 8 12 13 14  :  - 14 5439 0
1 2 6 3 4 5 7 11 B 9 10 15 8 12 13 14  :  - 14 4839 0.01
1 2 3 7 4 5 6 11 8 9 10 15 12 13 14 B  :  - 9 404 0
4 1 2 3 8 B 10 7 6 5 9 11 12 13 14 15  :  - 15 11884 0.01
1 5 2 3 4 B 6 7 8 9 10 11 12 13 14 15  :  - 3 26 0
B 1 2 3 4 5 6 7 8 12 10 11 13 9 14 15  :  - 14 3776 0.01
4 1 2 3 5 B 6 7 8 9 13 11 12 14 10 15  :  - 13 4692 0.01
6 5 7 2 1 4 10 3 8 9 B 11 12 13 14 15  :  - 20 121503 0.2
4 9 1 3 5 B 2 7 8 10 6 11 12 13 14 15  :  - 13 2973 0
4 1 2 3 8 5 6 7 13 12 9 11 14 B 10 15  :  - 15 7531 0.01
4 1 2 3 8 5 6 7 12 10 11 15 13 9 14 B  :  - 13 1855 0
4 2 6 3 5 1 7 B 8 9 10 11 12 13 14 15  :  - 9 429 0
4 1 2 3 8 5 6 7 B 9 14 11 12 10 13 15  :  - 12 1865 0
1 5 2 3 4 B 6 7 8 9 10 11 12 13 14 15  :  - 3 26 0
4 1 2 3 5 6 10 7 8 9 B 11 12 13 14 15  :  - 6 86 0
4 2 3 7 8 1 6 B 9 5 10 11 12 13 14 15  :  - 13 3604 0.01
5 4 B 3 1 9 2 7 8 10 6 11 12 13 14 15  :  - 16 12142 0.01
1 2 B 6 4 5 7 3 8 9 10 11 12 13 14 15  :  - 8 297 0
4 2 3 7 5 1 6 B 8 9 10 11 12 13 14 15  :  - 9 501 0
1 6 3 7 4 2 10 11 8 5 B 9 12 13 14 15  :  - 18 46357 0.06
8 4 2 3 1 5 6 7 B 9 10 11 12 13 14 15  :  - 16 13424 0.02
4 1 B 3 5 6 2 7 8 9 10 11 12 13 14 15  :  - 6 79 0
1 5 2 3 4 9 6 7 B 12 10 11 13 8 14 15  :  - 12 1555 0
1 2 3 7 4 5 10 6 8 9 B 15 12 13 11 14  :  - 14 7433 0.01
1 2 B 3 4 5 6 7 8 9 10 11 12 13 14 15  :  - 2 9 0
4 1 2 3 5 9 6 B 8 10 11 7 12 13 14 15  :  - 9 454 0
4 1 2 3 5 6 7 B 8 9 10 11 12 13 14 15  :  - 5 68 0
1 5 7 2 4 6 10 3 8 9 B 11 12 13 14 15  :  - 12 2835 0
4 1 2 3 8 5 6 7 B 9 10 11 12 13 14 15  :  - 4 26 0
4 2 3 7 5 1 6 11 8 13 9 10 12 B 14 15  :  - 15 7796 0.02
B 4 2 3 5 9 6 7 1 8 10 11 12 13 14 15  :  - 16 12135 0.01
