3 1 2 0 4 5 6 7 8 9 10 11 12 13
3 1 2 0 7 6 5 4 8 9 13 12 11 10
3 1 2 0 4 5 6 7 8 9 13 12 11 10
3 1 2 0 7 6 5 13 9 8 4 12 11 10
3 1 2 0 4 5 6 7 12 13 9 8 11 10
3 1 2 0 7 6 5 13 9 11 12 4 8 10
3 1 2 0 4 5 6 7 12 13 10 11 8 9
3 1 2 0 7 6 5 13 9 11 10 8 4 12
3 1 2 0 4 5 13 12 7 6 10 11 8 9
3 7 0 2 1 6 5 13 9 11 10 8 4 12  