nivel : 0 ; nodos: 1 ; factor de ramificacion: 16
nivel : 1 ; nodos: 16 ; factor de ramificacion: 10.5
nivel : 2 ; nodos: 168 ; factor de ramificacion: 9.28571
nivel : 3 ; nodos: 1560 ; factor de ramificacion: 8.99295
nivel : 4 ; nodos: 14029 ; factor de ramificacion: 8.93549
nivel : 5 ; nodos: 125356 ; factor de ramificacion: 8.92902
nivel : 6 ; nodos: 1119306 ; factor de ramificacion: 8.92987
