4 1 15 3 2 8 11 B 9 10 5 7 12 13 6 14  : 20 32 14858 0.02
4 1 5 10 6 12 8 3 14 2 B 7 13 9 11 15  : 26 36 60797 0.05
B 12 10 2 1 4 7 5 9 15 3 6 13 8 14 11  : 30 40 59012 0.05
4 1 14 6 8 13 9 3 15 7 B 2 12 10 5 11  : 30 40 141307 0.12
B 5 8 3 11 10 9 6 2 13 12 14 1 15 4 7  : 36 44 7694 0.01
2 1 5 9 13 3 10 7 12 4 B 15 6 8 11 14  : 30 44 3717115 3.25
8 4 1 2 6 10 13 12 B 5 3 11 14 15 7 9  : 32 42 49269 0.04
7 6 1 3 5 4 15 11 8 12 14 13 10 9 2 B  : 30 42 315627 0.28
5 3 4 6 12 7 15 9 14 13 2 11 8 B 10 1  : 38 48 408996 0.34
5 4 B 3 6 10 1 14 13 15 7 9 8 11 2 12  : 32 36 2864 0.01
10 2 8 3 1 B 11 13 5 4 7 15 9 14 6 12  : 32 40 84595 0.07
2 4 7 9 12 6 15 3 B 13 1 11 8 10 14 5  : 34 44 397267 0.34
1 8 2 3 4 B 5 7 13 14 9 6 12 15 11 10  : 18 24 681 0
4 2 1 3 15 B 12 7 11 5 10 13 9 8 6 14  : 30 42 458645 0.4
12 4 1 11 2 9 7 6 13 5 B 15 8 14 3 10  : 32 40 149569 0.13
1 8 4 3 13 5 2 12 6 9 7 10 15 B 14 11  : 30 42 287644 0.25
4 3 5 7 12 1 11 B 8 13 6 10 14 2 9 15  : 24 32 7882 0
9 3 2 7 4 8 1 6 14 11 12 5 10 13 15 B  : 30 44 920801 0.79
8 2 5 1 4 12 15 3 9 11 10 13 14 B 6 7  : 34 42 29794 0.03
1 5 3 13 8 6 15 14 11 9 B 2 4 12 7 10  : 36 44 257305 0.22
8 3 1 11 5 13 7 2 B 14 4 6 12 9 15 10  : 30 38 27391 0.02
B 6 13 15 8 1 4 7 9 2 3 10 5 12 11 14  : 34 44 172658 0.15
6 10 B 2 5 9 12 7 1 4 15 3 8 11 14 13  : 32 42 18024 0.02
10 5 2 3 1 B 7 13 15 9 4 8 12 11 6 14  : 30 42 416447 0.36
9 1 6 2 11 4 7 3 5 10 14 15 8 B 13 12  : 24 40 987228 0.85
13 2 1 8 11 4 6 3 B 7 5 9 10 12 15 14  : 36 50 8741201 7.52
8 4 1 2 9 5 15 10 6 12 B 3 13 11 14 7  : 26 34 27122 0.03
4 2 10 7 5 9 3 13 6 14 15 1 8 12 11 B  : 28 36 36070 0.03
5 4 6 1 2 B 9 7 13 3 10 11 8 12 14 15  : 22 30 4269 0
2 1 B 3 5 10 9 15 14 4 13 7 12 11 8 6  : 28 44 4041488 3.48
12 14 8 3 9 B 6 7 2 15 5 1 4 13 10 11  : 34 44 72307 0.07
2 1 10 7 5 11 6 8 4 15 14 3 12 B 13 9  : 30 42 680873 0.58
B 13 4 9 14 10 2 1 11 5 15 6 12 8 7 3  : 36 48 253579 0.22
8 1 15 7 5 12 3 13 B 9 4 6 14 2 11 10  : 36 44 56591 0.05
14 4 3 15 8 2 10 9 13 12 B 1 5 11 7 6  : 38 48 2689637 2.29
5 2 6 3 4 14 1 B 13 8 12 11 9 15 7 10  : 24 38 520746 0.45
7 5 11 1 3 B 2 15 13 4 6 10 8 9 12 14  : 28 40 80288 0.07
1 4 7 6 13 3 2 11 12 10 B 14 9 5 8 15  : 28 36 24555 0.02
4 1 7 2 5 13 15 3 8 11 6 10 12 9 14 B  : 18 30 21305 0.02
6 1 10 2 5 3 9 7 12 14 B 11 13 8 4 15  : 24 32 5430 0
4 1 3 11 6 9 10 B 13 8 15 7 2 12 5 14  : 24 38 399527 0.34
8 3 13 7 9 1 5 B 6 2 15 11 10 4 12 14  : 32 40 30247 0.03
2 3 6 7 12 8 15 9 11 5 B 13 1 10 14 4  : 36 46 172936 0.15
5 9 15 11 4 6 1 B 12 2 10 3 8 14 13 7  : 30 48 35253763 30.53
7 4 B 6 1 15 3 2 12 5 14 10 11 8 9 13  : 36 42 64446 0.06
B 9 1 10 8 3 2 7 5 13 6 11 4 12 14 15  : 24 34 23979 0.02
4 7 8 11 9 B 6 2 12 10 1 15 13 3 5 14  : 32 38 27615 0.02
1 10 12 5 2 13 7 3 B 8 6 11 9 4 14 15  : 26 36 33890 0.03
8 14 2 3 4 13 1 7 12 5 6 11 10 15 9 B  : 22 38 265375 0.23
6 11 2 7 1 4 3 10 B 14 9 15 8 12 5 13  : 28 34 2948 0.01
12 11 1 3 10 6 2 5 8 15 7 13 9 B 14 4  : 34 48 1610918 1.38
8 3 7 10 6 5 1 14 12 15 9 11 13 B 4 2  : 32 42 99054 0.09
4 13 3 7 8 5 6 B 12 10 11 1 9 15 14 2  : 26 40 480454 0.44
5 6 11 7 4 1 2 15 14 8 10 3 12 B 13 9  : 28 42 927381 0.83
B 9 7 3 1 13 8 6 5 4 2 10 12 15 14 11  : 30 38 61510 0.05
9 5 3 7 1 13 2 B 10 15 4 6 12 8 14 11  : 26 36 29645 0.03
1 4 3 10 5 13 14 B 11 8 7 6 12 9 15 2  : 26 44 3505074 3.1
12 5 6 3 7 11 1 15 B 4 2 10 9 13 8 14  : 28 40 71774 0.06
5 8 2 3 9 12 4 15 B 13 11 6 14 7 1 10  : 30 36 1044 0
6 7 15 1 3 B 9 10 4 5 11 2 8 12 13 14  : 30 40 85362 0.08
4 5 3 7 11 2 6 B 1 12 14 10 8 13 9 15  : 20 32 31685 0.02
12 1 8 9 10 7 13 5 3 6 B 14 4 15 2 11  : 40 54 4460582 3.83
8 3 7 15 1 2 4 6 B 12 5 14 13 10 9 11  : 30 34 952 0
4 6 7 14 1 B 5 3 13 15 12 8 9 10 11 2  : 34 46 526003 0.46
8 4 1 3 9 2 6 7 14 5 13 11 12 10 15 B  : 20 20 45 0
5 6 1 7 9 4 10 15 2 8 11 3 12 13 14 B  : 24 36 23959 0.02
4 1 15 2 6 5 3 B 8 12 13 7 9 10 11 14  : 26 30 2153 0
3 9 8 10 13 7 1 2 12 4 B 6 14 5 15 11  : 34 44 159650 0.14
14 1 5 2 11 B 3 4 15 10 9 13 8 6 7 12  : 36 50 2019865 1.74
4 3 2 6 11 13 7 15 1 8 5 9 10 B 12 14  : 32 40 45393 0.04
5 6 10 1 8 2 3 7 4 9 B 11 13 12 15 14  : 28 40 819142 0.7
2 1 11 3 15 B 9 7 4 14 5 8 10 6 12 13  : 32 48 8729392 7.5
1 14 B 7 8 3 2 6 4 9 10 5 12 11 13 15  : 28 36 41406 0.03
4 3 9 2 5 B 8 15 14 1 12 7 13 11 6 10  : 32 42 77887 0.07
8 13 7 2 4 B 6 1 15 9 12 10 3 5 11 14  : 38 50 830389 0.71
2 9 B 11 7 4 1 5 8 3 6 14 12 13 15 10  : 24 38 177048 0.15
5 12 3 14 13 4 6 7 B 1 10 11 15 9 2 8  : 32 48 4793271 4.12
1 5 7 4 11 12 6 2 8 9 10 15 13 14 3 B  : 28 38 63333 0.06
14 4 3 5 8 2 11 9 B 10 1 6 7 12 13 15  : 32 40 110303 0.09
5 8 9 3 2 B 7 11 12 10 1 6 13 14 15 4  : 28 38 74268 0.07
4 1 9 3 7 2 5 11 6 8 14 10 12 13 15 B  : 18 28 10998 0
4 12 1 3 5 7 11 B 9 8 10 2 6 13 14 15  : 22 32 13621 0.02
8 4 B 6 2 12 3 5 10 9 13 1 14 15 7 11  : 32 42 125102 0.11
2 13 1 3 4 9 5 14 6 12 7 11 8 15 10 B  : 26 40 383448 0.33
14 1 6 2 4 B 11 3 13 5 7 10 12 15 9 8  : 24 44 16411453 14.19
1 2 12 3 9 4 5 6 14 7 B 11 13 15 10 8  : 26 40 359887 0.31
2 1 6 7 4 15 10 11 5 9 3 14 8 12 13 B  : 26 34 7057 0.01
4 1 2 3 6 12 7 9 8 14 B 10 5 13 11 15  : 22 30 15389 0.01
4 10 15 3 6 8 9 14 5 12 11 7 2 B 1 13  : 34 44 398034 0.34
1 4 13 7 14 B 2 6 5 10 9 15 3 8 11 12  : 34 44 318063 0.28
4 5 11 3 12 6 13 7 2 8 10 15 1 B 14 9  : 24 40 1338030 1.16
3 8 B 5 6 9 7 14 12 4 13 15 1 11 10 2  : 38 52 21283339 18.31
8 9 B 7 6 13 1 3 12 4 5 11 2 14 10 15  : 26 44 4384241 3.81
6 3 2 9 12 7 4 15 8 14 B 1 13 5 11 10  : 34 48 1785064 1.54
9 2 5 7 8 1 3 10 12 11 B 13 14 4 15 6  : 30 38 37690 0.04
B 10 4 2 5 8 11 15 13 12 1 14 9 3 6 7  : 34 44 140627 0.12
7 1 2 3 4 9 11 15 5 6 13 10 12 B 8 14  : 22 28 1166 0
5 9 3 4 7 8 10 B 1 13 11 15 12 14 6 2  : 28 42 185589 0.16
1 7 B 5 2 14 3 4 9 12 10 13 15 6 11 8  : 38 52 3760294 3.23
4 10 6 3 14 9 13 1 B 2 12 11 5 8 7 15  : 30 40 43673 0.04
