2 3 7 4 9 5 1 13 8 14 22 23 B 10 12 11 20 17 21 19 6 15 16 18 24  : 40 50 1016069 2.13
1 2 B 6 4 7 10 8 3 9 15 5 11 18 14 16 12 13 23 19 20 17 21 22 24  : 28 34 4352 0.01
5 6 B 7 1 16 11 2 4 8 10 18 13 3 19 20 22 12 23 9 21 17 15 24 14  : 40 54 3049002 6.5
6 2 8 4 9 1 5 3 24 13 10 11 12 7 19 15 16 14 18 23 20 21 17 22 B  : 28 34 2416 0
1 6 2 3 4 5 11 7 8 9 20 10 12 23 B 16 18 24 22 13 21 17 15 19 14  : 28 30 345 0.01
B 1 6 2 3 10 5 12 14 4 7 11 13 9 19 15 16 17 8 18 20 21 22 23 24  : 20 24 156 0
5 6 1 8 3 10 16 2 4 9 11 21 B 23 13 15 12 7 18 14 20 22 17 24 19  : 28 30 206 0
1 2 12 3 4 5 10 16 8 9 7 6 B 13 14 11 15 22 18 19 20 17 21 23 24  : 20 26 1658 0
4 5 13 3 9 2 6 8 B 18 1 11 7 12 14 10 15 16 17 19 20 21 22 23 24  : 28 38 11913 0.03
1 2 11 3 4 5 6 8 9 14 23 16 17 7 18 10 21 19 B 13 15 12 20 22 24  : 34 40 20711 0.04
1 4 3 8 14 5 2 11 7 9 10 6 12 18 B 15 16 17 23 13 20 21 22 24 19  : 22 32 44335 0.1
5 1 2 9 3 10 12 6 7 4 11 16 13 8 14 15 21 17 B 19 20 18 22 23 24  : 18 24 667 0
10 5 2 4 9 11 16 6 8 13 21 12 18 3 7 1 B 15 19 14 20 22 17 23 24  : 36 46 897821 1.9
1 7 11 6 4 5 2 3 13 12 16 15 B 8 9 10 21 17 19 14 20 22 23 18 24  : 30 34 902 0
1 8 2 4 B 10 5 7 3 9 15 6 13 19 14 11 16 12 23 24 20 17 18 21 22  : 26 42 643065 1.36
5 1 7 4 2 6 11 8 14 3 10 16 13 22 9 15 21 18 17 19 B 20 23 12 24  : 26 34 7073 0.01
6 2 3 4 B 10 5 12 8 9 7 1 17 13 14 15 11 16 18 19 20 21 22 23 24  : 16 18 48 0
6 5 2 14 13 1 12 11 8 9 B 10 7 4 3 15 16 17 18 19 20 21 22 23 24  : 26 30 1771 0.01
5 7 1 2 B 6 16 8 4 3 10 11 13 9 14 15 22 18 12 24 20 17 21 19 23  : 30 32 356 0
5 2 7 1 4 6 8 12 B 9 10 11 22 3 14 21 16 18 13 23 15 20 24 17 19  : 28 36 12619 0.02
B 3 2 4 9 5 10 12 8 14 7 1 17 18 13 11 16 22 6 19 20 21 15 23 24  : 26 40 155853 0.34
1 3 11 4 B 6 2 7 14 9 5 10 15 17 8 20 16 12 13 19 21 22 23 18 24  : 28 38 55473 0.11
5 2 B 3 4 6 1 8 13 9 10 11 7 18 14 15 16 23 22 19 20 17 21 12 24  : 18 22 168 0
5 3 4 8 14 2 1 6 19 9 11 12 17 13 B 10 16 23 7 18 15 20 21 22 24  : 30 42 70422 0.15
5 1 3 14 9 6 8 2 4 13 10 7 11 12 23 20 15 16 B 18 21 22 24 17 19  : 32 36 842 0
5 1 2 3 4 10 16 6 7 9 11 12 19 13 14 17 15 8 B 18 21 20 22 23 24  : 22 34 64978 0.14
1 6 2 3 4 10 5 8 13 19 B 7 12 16 18 20 11 23 9 17 21 22 15 14 24  : 32 42 67723 0.15
5 1 2 3 4 6 17 13 11 8 10 7 B 18 9 15 21 12 22 14 20 23 16 24 19  : 26 30 1764 0
5 1 2 3 4 6 7 13 B 12 10 11 8 18 9 20 16 17 19 14 21 15 22 23 24  : 18 22 675 0
1 6 2 4 12 10 13 14 5 9 11 7 3 19 8 15 20 17 B 24 21 16 22 18 23  : 34 46 899592 1.92
5 1 B 3 9 10 11 2 6 8 7 12 13 18 14 20 16 4 17 19 21 15 22 23 24  : 26 38 173889 0.37
7 6 12 1 8 15 11 2 5 3 16 10 17 4 13 20 22 23 19 9 B 21 18 24 14  : 42 50 45497 0.1
6 7 8 14 3 1 B 17 10 4 2 5 12 13 9 21 20 15 18 19 16 22 11 23 24  : 40 50 1625302 3.48
1 6 2 3 4 5 7 12 8 9 15 11 17 14 B 20 16 18 13 24 21 22 10 19 23  : 20 24 899 0
5 2 8 4 13 10 1 3 14 9 15 6 7 18 19 20 11 12 23 24 21 16 17 22 B  : 28 30 185 0
10 1 2 3 4 6 5 8 9 18 7 20 12 17 13 21 11 16 23 14 15 22 B 24 19  : 28 44 648869 1.4
5 2 B 3 4 10 1 6 7 9 11 12 8 19 13 15 16 17 24 18 20 21 22 14 23  : 22 32 14981 0.03
6 2 3 13 4 1 7 12 9 8 5 11 17 18 14 10 15 16 23 19 20 21 B 22 24  : 22 28 1944 0.01
7 16 10 3 9 2 B 6 4 8 1 5 12 13 14 11 15 18 23 19 20 17 21 22 24  : 34 38 6596 0.01
5 6 8 3 4 10 1 2 18 14 7 11 12 24 13 15 16 22 B 9 20 21 23 19 17  : 28 42 2589730 5.52
7 5 3 13 4 1 2 8 B 9 10 6 12 18 14 11 22 15 16 19 20 21 17 23 24  : 24 40 2408304 5.22
5 12 1 8 9 6 7 13 4 3 15 10 11 2 B 20 16 18 23 14 17 21 22 24 19  : 32 44 459904 1
10 5 3 8 4 16 11 7 2 9 6 1 13 14 B 15 21 12 18 19 20 22 17 23 24  : 22 28 1894 0
B 6 12 3 4 10 1 2 8 9 7 5 13 18 14 15 11 16 17 19 20 21 22 23 24  : 18 26 6593 0.02
5 1 2 3 4 7 18 6 9 12 B 10 13 8 14 15 20 22 11 23 21 16 17 24 19  : 30 46 6087790 12.94
1 6 B 3 4 5 7 11 8 9 10 20 2 12 13 15 16 18 19 14 21 22 17 23 24  : 18 28 4039 0.01
6 5 2 3 4 10 1 11 8 9 15 12 16 13 14 17 B 21 18 19 20 22 7 23 24  : 22 22 42 0
B 5 8 2 9 6 1 11 4 14 10 12 3 13 19 15 7 16 17 18 20 21 22 23 24  : 24 28 1908 0.01
11 1 2 7 4 5 13 6 3 9 10 20 B 17 14 21 16 12 8 19 15 22 23 18 24  : 24 38 646331 1.39
5 7 1 3 4 10 6 2 8 14 16 20 12 9 13 11 B 22 18 19 17 15 21 23 24  : 26 28 1499 0.01
1 7 3 4 9 5 2 12 8 14 10 6 11 13 B 15 22 18 19 17 20 16 21 23 24  : 20 24 270 0
2 3 7 8 4 1 10 9 14 19 B 6 5 11 13 15 16 18 24 22 20 21 12 17 23  : 36 42 11220 0.02
5 6 2 1 3 11 10 23 18 4 15 13 17 7 8 20 12 22 9 14 21 16 B 19 24  : 38 44 46733 0.1
1 2 7 3 4 5 6 8 13 9 10 16 12 18 14 11 21 17 B 19 15 20 22 23 24  : 12 16 183 0
5 2 12 3 4 6 16 1 8 9 21 11 14 7 13 10 B 22 17 19 20 18 15 24 23  : 34 46 1157115 2.46
5 7 1 9 14 6 8 4 B 2 10 11 18 3 13 15 16 12 22 17 20 21 23 24 19  : 30 30 68 0
5 1 2 3 4 6 7 12 8 9 15 10 13 24 14 11 18 17 B 23 20 16 21 22 19  : 20 22 121 0
5 11 1 7 3 2 17 6 8 4 15 10 13 14 9 12 B 16 18 19 20 21 22 23 24  : 26 26 61 0
5 1 8 4 9 10 17 6 13 2 3 11 12 7 18 15 21 16 19 14 20 22 B 23 24  : 30 38 41941 0.09
B 1 16 3 9 5 17 2 4 8 6 11 7 12 14 10 15 18 19 13 20 21 22 23 24  : 26 36 11872 0.03
6 2 7 8 3 10 1 13 4 9 15 16 14 11 19 20 17 23 B 18 21 22 5 12 24  : 36 40 2438 0
8 10 2 1 3 5 16 6 9 4 11 17 7 12 13 15 21 22 B 18 20 23 24 19 14  : 34 40 5790 0.02
6 5 3 4 9 10 1 2 8 14 12 16 B 13 19 15 17 11 7 24 20 21 22 18 23  : 26 26 51 0
5 1 2 3 4 11 16 10 13 8 6 7 B 12 9 20 15 17 19 14 21 22 23 18 24  : 24 24 74 0
5 1 2 3 B 10 6 7 9 4 15 11 8 13 14 16 21 23 12 18 20 17 24 19 22  : 24 32 7298 0.01
1 5 2 3 B 10 15 7 9 4 20 17 6 8 12 16 23 22 13 14 21 11 18 24 19  : 32 40 29301 0.06
10 2 8 9 3 6 1 17 13 4 16 7 12 5 14 11 21 19 23 24 20 22 15 18 B  : 36 48 791653 1.7
1 6 3 4 7 5 11 2 14 13 B 16 18 24 12 10 15 17 8 9 20 21 22 19 23  : 30 38 10351 0.02
B 2 11 7 4 5 10 1 3 8 16 15 13 14 9 6 17 12 23 19 20 21 22 24 18  : 28 34 2520 0
1 7 2 8 4 15 5 3 9 14 B 6 17 18 13 11 12 19 22 24 10 20 21 16 23  : 34 40 18726 0.05
1 3 2 4 13 5 6 12 8 9 15 10 7 18 14 20 17 11 B 19 21 16 22 23 24  : 18 34 426628 0.92
5 1 3 4 9 6 12 2 8 7 15 10 17 19 13 11 22 16 B 14 20 21 23 18 24  : 24 36 116446 0.25
11 1 B 4 9 16 10 3 2 8 12 5 7 13 14 20 6 17 18 19 21 15 22 23 24  : 26 34 22234 0.05
1 6 2 3 4 10 5 7 14 8 B 11 17 13 9 20 12 15 19 24 21 18 16 22 23  : 26 28 300 0
5 1 2 4 B 10 6 7 3 9 16 12 18 8 14 11 21 22 13 23 15 20 17 24 19  : 22 26 490 0
5 1 2 4 9 10 12 7 8 14 15 13 B 3 19 20 6 17 23 18 21 11 16 22 24  : 26 28 224 0
1 2 8 4 9 5 11 6 3 14 10 16 12 7 19 21 20 17 18 24 15 22 B 23 13  : 26 30 417 0
5 2 1 4 13 10 11 8 9 12 20 7 3 14 B 16 17 6 18 19 21 15 22 23 24  : 32 46 9844334 21.11
1 6 2 3 4 7 10 12 8 9 15 5 11 19 13 16 23 17 B 14 20 21 22 18 24  : 20 26 1559 0
5 1 3 8 4 6 7 12 2 9 10 13 21 17 14 15 11 22 B 23 20 16 24 18 19  : 24 28 1816 0
2 6 7 3 4 11 12 15 8 9 5 1 B 14 19 10 21 16 17 18 20 22 13 23 24  : 28 34 11047 0.03
5 2 7 3 4 10 6 12 1 8 15 11 23 22 9 16 17 19 B 14 20 21 24 13 18  : 30 34 4363 0.01
1 6 3 8 4 11 7 2 12 9 5 10 17 22 14 20 15 16 13 19 B 21 23 18 24  : 22 26 928 0
10 5 2 3 4 12 15 6 7 8 1 21 18 13 9 11 24 22 B 14 20 16 19 17 23  : 36 48 5252085 11.06
5 1 3 4 9 10 6 8 2 13 15 17 7 14 24 16 11 23 22 12 20 21 B 19 18  : 30 38 69793 0.15
1 6 3 4 9 10 2 16 7 13 11 5 B 18 14 15 22 21 8 12 20 17 23 19 24  : 32 36 1623 0.01
6 2 13 8 4 1 5 3 B 9 16 7 17 12 18 10 11 19 23 14 20 15 21 22 24  : 30 34 941 0
1 11 2 7 B 5 17 19 4 3 6 21 12 18 8 10 15 13 23 14 20 22 16 24 9  : 38 44 10348 0.02
10 1 6 14 B 8 7 2 3 4 11 5 17 12 9 15 16 18 19 13 20 21 22 23 24  : 26 36 23491 0.05
6 10 B 1 3 5 17 8 2 4 16 11 7 14 9 15 22 18 13 24 20 21 12 19 23  : 32 42 469617 1.01
1 6 2 3 4 10 7 12 9 14 B 15 13 18 8 16 5 21 17 19 20 22 11 23 24  : 24 24 92 0
6 5 1 2 3 11 10 17 8 4 15 7 B 14 9 20 21 13 18 19 16 22 12 23 24  : 30 36 25022 0.05
5 1 2 3 4 11 10 7 8 9 15 16 13 23 14 17 6 12 B 19 20 21 18 22 24  : 18 20 89 0
5 7 8 13 3 6 B 2 9 14 10 1 17 12 4 15 11 16 18 19 20 21 22 23 24  : 20 26 673 0
5 6 2 3 4 7 21 1 8 14 11 10 12 9 13 20 B 17 18 19 22 15 16 23 24  : 24 38 393958 0.87
1 11 6 2 3 9 10 5 12 18 B 16 8 13 4 15 17 7 19 14 20 21 22 23 24  : 32 40 56192 0.12
8 5 2 3 4 10 1 7 13 9 15 11 12 18 14 16 6 22 B 24 20 21 23 19 17  : 22 32 37975 0.08
5 1 2 3 4 6 10 11 7 9 20 15 16 8 14 21 17 12 13 19 22 23 B 18 24  : 24 24 44 0
1 7 B 6 4 5 2 12 3 8 10 16 23 14 9 15 17 11 22 19 20 21 18 13 24  : 26 30 3210 0.01
5 8 1 12 9 6 3 2 14 7 10 11 B 17 4 15 16 18 19 24 20 21 13 22 23  : 32 42 571654 1.21
