3 2 1 0 4 5 6 7 8 9 10 11 
3 2 1 0 4 5 6 7 11 10 9 8
3 2 1 0 4 5 10 11 7 6 9 8
3 4 0 1 2 5 6 7 8 9 10 11 
3 4 0 6 5 2 1 7 11 10 9 8
3 2 1 0 4 7 11 10 5 6 9 8
3 2 1 0 11 10 5 4 7 6 9 8 
3 4 0 6 5 2 1 7 11 10 9 8
3 11 0 1 2 10 5 4 7 6 9 8 
3 4 0 1 2 5 6 7 11 10 9 8