3 2 1 0 4 5 6 7 8 9 10 11  : 2 1  0.028026
3 2 1 0 4 5 6 7 11 10 9 8 : 4 2  0.027361
3 2 1 0 4 5 10 11 7 6 9 8 : 6 3916  0.052834
3 4 0 1 2 5 6 7 8 9 10 11  : 4 2  0.026304
3 4 0 6 5 2 1 7 11 10 9 8 : 8 1122  0.033484
3 2 1 0 4 7 11 10 5 6 9 8 : 8 24399  0.103187
3 2 1 0 11 10 5 4 7 6 9 8  : 7 4544  0.043891
3 4 0 6 5 2 1 7 11 10 9 8 : 8 1122  0.029157
3 11 0 1 2 10 5 4 7 6 9 8  : 5 3028  0.065654
3 4 0 1 2 5 6 7 11 10 9 8 : 6 7342  0.069896
