nivel : 0 ; nodos: 1 ; factor de ramificacion: 3
nivel : 1 ; nodos: 3 ; factor de ramificacion: 5
nivel : 2 ; nodos: 15 ; factor de ramificacion: 4.6
nivel : 3 ; nodos: 69 ; factor de ramificacion: 4.73913
nivel : 4 ; nodos: 327 ; factor de ramificacion: 4.87156
nivel : 5 ; nodos: 1593 ; factor de ramificacion: 4.93597
nivel : 6 ; nodos: 7863 ; factor de ramificacion: 5.00229
nivel : 7 ; nodos: 39333 ; factor de ramificacion: 5.04897
nivel : 8 ; nodos: 198591 ; factor de ramificacion: 5.08843
nivel : 9 ; nodos: 1010517 ; factor de ramificacion: 5.12017
nivel : 10 ; nodos: 5174019 ; factor de ramificacion: 5.14704
